…
``` r
pfos_cor_test_results_tidy |>
  filter(p_adj < 0.05) |>
  arrange(desc(abs(estimate)))
```

    ## # A tibble: 170 × 10
    ##    estimate statistic  p.value parameter conf.low conf.high method   alternative
    ##       <dbl>     <dbl>    <dbl>     <int>    <dbl>     <dbl> <chr>    <chr>      
    ##  1    0.780     16.6  5.26e-38       178    0.715     0.831 Pearson… two.sided  
    ##  2    0.776     16.4  2.08e-37       178    0.710     0.828 Pearson… two.sided  
    ##  3   -0.457     -6.85 1.18e-10       178   -0.565    -0.332 Pearson… two.sided  
    ##  4   -0.423     -6.22 3.41e- 9       178   -0.536    -0.295 Pearson… two.sided  
    ##  5    0.399      5.81 2.84e- 8       178    0.269     0.515 Pearson… two.sided  
    ##  6   -0.394     -5.72 4.42e- 8       178   -0.511    -0.263 Pearson… two.sided  
    ##  7   -0.390     -5.65 6.20e- 8       178   -0.507    -0.259 Pearson… two.sided  
    ##  8   -0.386     -5.58 8.94e- 8       178   -0.504    -0.254 Pearson… two.sided  
    ##  9   -0.379     -5.46 1.60e- 7       178   -0.497    -0.246 Pearson… two.sided  
    ## 10    0.370      5.31 3.30e- 7       178    0.236     0.489 Pearson… two.sided  
    ## # ℹ 160 more rows
    ## # ℹ 2 more variables: feature <chr>, p_adj <dbl>
…
